ST 558 Final Project EDA
…
diabetes_data

# A tibble: 253,680 × 12
   Diabetes_binary HighBP Smoker PhysActivity Fruits Veggies HvyAlcoholConsump
   <fct>           <fct>  <fct>  <fct>        <fct>  <fct>   <fct>            
 1 No              High   Yes    No           No     Yes     No               
 2 No              Low    Yes    Yes          No     No      No               
 3 No              High   No     No           Yes    No      No               
 4 No              High   No     Yes          Yes    Yes     No               
 5 No              High   No     Yes          Yes    Yes     No               
 6 No              High   Yes    Yes          Yes    Yes     No               
 7 No              High   Yes    No           No     No      No               
 8 No              High   Yes    Yes          No     Yes     No               
 9 Yes             High   Yes    No           Yes    Yes     No               
10 No              Low    No     No           No     Yes     No               
# ℹ 253,670 more rows
# ℹ 5 more variables: GenHlth <dbl>, DiffWalk <fct>, Sex <fct>, Age <dbl>,
#   Income <dbl>
…
