ST 558 Final Project Modeling
…
diabetes_data

# A tibble: 253,680 × 12
   Diabetes_binary HighBP Smoker PhysActivity Fruits Veggies HvyAlcoholConsump
   <fct>           <fct>  <fct>  <fct>        <fct>  <fct>   <fct>            
 1 0               1      1      0            0      1       0                
 2 0               0      1      1            0      0       0                
 3 0               1      0      0            1      0       0                
 4 0               1      0      1            1      1       0                
 5 0               1      0      1            1      1       0                
 6 0               1      1      1            1      1       0                
 7 0               1      1      0            0      0       0                
 8 0               1      1      1            0      1       0                
 9 1               1      1      0            1      1       0                
10 0               0      0      0            0      1       0                
# ℹ 253,670 more rows
# ℹ 5 more variables: GenHlth <dbl>, DiffWalk <fct>, Sex <fct>, Age <dbl>,
#   Income <dbl>
…
